<svg width="10" height="20" viewBox="0 0 10 20" fill="none" xmlns="http://www.w3.org/2000/svg">
<path d="M9.66644 2.37974C9.74914 2.29223 9.8138 2.18928 9.85671 2.07678C9.89962 1.96428 9.91996 1.84443 9.91656 1.72407C9.91315 1.60371 9.88607 1.4852 9.83687 1.3753C9.78766 1.26541 9.71729 1.16628 9.62978 1.08358C9.54226 1.00088 9.43931 0.936225 9.32681 0.893311C9.21431 0.850397 9.09446 0.830061 8.9741 0.833466C8.85374 0.836871 8.73523 0.863949 8.62533 0.913155C8.51544 0.96236 8.41631 1.03273 8.33361 1.12024L0.541946 9.37024C0.381038 9.54044 0.291382 9.76577 0.291382 9.99999C0.291382 10.2342 0.381038 10.4595 0.541946 10.6297L8.33361 18.8807C8.41576 18.9701 8.51487 19.0423 8.62517 19.0931C8.73547 19.1439 8.85476 19.1723 8.97613 19.1766C9.09749 19.1809 9.2185 19.1611 9.33212 19.1182C9.44575 19.0754 9.54973 19.0104 9.63803 18.927C9.72632 18.8436 9.79717 18.7435 9.84645 18.6326C9.89574 18.5216 9.92248 18.4019 9.92512 18.2805C9.92777 18.1591 9.90626 18.0383 9.86185 17.9253C9.81745 17.8123 9.75102 17.7092 9.66644 17.6221L2.46878 9.99999L9.66644 2.37974Z" fill="#242E3F"/>
</svg>
